Task,Topic,Task,Topic
Bayesian , Bayesian Inference,ModelDeployment , Model Deployment with R
ChemPhys , Chemometrics and Computational Physics,Multivariate , Multivariate Statistics
ClinicalTrials ," Clinical Trial Design, Monitoring and Analysis",NaturalLanguageProcessing , Natural Language Processing
Cluster , Cluster Analysis & Finite Mixture Models,NumericalMathematics , Numerical Mathematics
Databases , Databases with R,OfficialStatistics , Official Statistics & Survey Methodology
DifferentialEquations , Differential Equations,Optimization , Optimization and Mathematical Programming
Distributions , Probability Distributions,Pharmacokinetics , Analysis of Pharmacokinetic Data
Econometrics , Econometrics,Phylogenetics ," Phylogenetics, Especially Comparative Methods"
Environmetrics , Analysis of Ecological and Environmental Data,Psychometrics , Psychometric Models and Methods
ExperimentalDesign , Design of Experiments (DoE) & Analysis of Experimental Data,ReproducibleResearch , Reproducible Research
ExtremeValue , Extreme Value Analysis,Robust , Robust Statistical Methods
Finance , Empirical Finance,SocialSciences , Statistics for the Social Sciences
FunctionalData , Functional Data Analysis,Spatial , Analysis of Spatial Data
Genetics , Statistical Genetics,SpatioTemporal , Handling and Analyzing Spatio-Temporal Data
Graphics , Graphic Displays & Dynamic Graphics & Graphic Devices & Visualization,Survival , Survival Analysis
HighPerformanceComputing , High-Performance and Parallel Computing with R,TeachingStatistics , Teaching Statistics
Hydrology , Hydrological Data and Modeling,TimeSeries , Time Series Analysis
MachineLearning , Machine Learning & Statistical Learning,Tracking , Processing and Analysis of Tracking Data
MedicalImaging , Medical Image Analysis,WebTechnologies , Web Technologies and Services
MetaAnalysis , Meta-Analysis,gR , gRaphical Models in R
MissingData , Missing Data,,
